<!DOCTYPE html>
<html lang="es">
<head>
    <meta charset="UTF-8">
    <meta name="viewport" content="width=device-width, initial-scale=1.0">
    <meta http-equiv="X-UA-Compatible" content="ie=edge">
    <title>Boleta de Pago</title>
</head>
<body>
    <h1>Boleta de Pago</h1>
    <div class="encabezado">
        <div>
            <label>Código empleado: </label><label><strong>{{empleado.extEmpNo}}</strong></label>
        </div>
    </div>
</body>
</html>